{
  "name": "bedictss",
  "title": "bedictss",
  "summary": "bedictss",
  "dxapi": "1.0.0",
  "version": "1.2.0",
  "inputSpec": [
    {
      "name": "par_30_2_200_bed",
      "class": "file",
      "optional": false,
      "patterns": [
        "*"
      ],
      "help": ""
    },
    {
      "name": "filelist",
      "class": "array:file",
      "optional": false,
      "patterns": [
        "*"
      ],
      "help": ""
    }
  ],
  "outputSpec": [
    {
      "name": "counts",
      "class": "file",
      "patterns": [
        "*"
      ],
      "help": ""
    }
  ],
  "timeoutPolicy": {
    "*": {
      "hours": 48
    }
  },
  "runSpec": {
    "interpreter": "bash",
    "file": "src/bedictss.sh",
    "systemRequirements": {
      "*": {
        "instanceType": "mem1_ssd1_x4"
      }
    },
    "distribution": "Ubuntu",
    "release": "12.04"
  }
}
